…
Once you have verified that this worked, overwrite your data object.

``` r
billboard_songs$date <- as.character(billboard_songs$`chart date`)
billboard_songs$date <- lubridate::make_date(substring(billboard_songs$date,0,4),substring(billboard_songs$date,5,6),substring(billboard_songs$date,7,8))
billboard_songs
```

    ## # A tibble: 34,605 x 6
    ##    title      artist     `overall peak` `weeks on chart` `chart date` date      
    ##    <chr>      <chr>               <dbl>            <dbl>        <dbl> <date>    
    ##  1 Uptown Fu… MARK RONS…              1               15     20150307 2015-03-07
    ##  2 Thinking … ED SHEERAN              2               20     20150307 2015-03-07
    ##  3 Love Me L… ELLIE GOU…              3                7     20150307 2015-03-07
    ##  4 Sugar      MAROON 5                4                6     20150307 2015-03-07
    ##  5 Take Me T… HOZIER                  2               28     20150307 2015-03-07
    ##  6 FourFiveS… RIHANNA &…              4                5     20150307 2015-03-07
    ##  7 Blank Spa… TAYLOR SW…              1               17     20150307 2015-03-07
    ##  8 Style      TAYLOR SW…              8                9     20150307 2015-03-07
    ##  9 Earned It… THE WEEKND              9                9     20150307 2015-03-07
    ## 10 Lips Are … MEGHAN TR…              4               18     20150307 2015-03-07
    ## # … with 34,595 more rows
…
**Response**:

What date did the oldest song(s) in this dataset leave the charts? Give
only the *distinct* dates.

``` r
billboard_songs%>%
  arrange(desc(date))
```

    ## # A tibble: 34,605 x 6
    ##    title      artist     `overall peak` `weeks on chart` `chart date` date      
    ##    <chr>      <chr>               <dbl>            <dbl>        <dbl> <date>    
    ##  1 Uptown Fu… MARK RONS…              1               15     20150307 2015-03-07
    ##  2 Thinking … ED SHEERAN              2               20     20150307 2015-03-07
    ##  3 Love Me L… ELLIE GOU…              3                7     20150307 2015-03-07
    ##  4 Sugar      MAROON 5                4                6     20150307 2015-03-07
    ##  5 Take Me T… HOZIER                  2               28     20150307 2015-03-07
    ##  6 FourFiveS… RIHANNA &…              4                5     20150307 2015-03-07
    ##  7 Blank Spa… TAYLOR SW…              1               17     20150307 2015-03-07
    ##  8 Style      TAYLOR SW…              8                9     20150307 2015-03-07
    ##  9 Earned It… THE WEEKND              9                9     20150307 2015-03-07
    ## 10 Lips Are … MEGHAN TR…              4               18     20150307 2015-03-07
    ## # … with 34,595 more rows
…
